{"https://api.carapis.com/apix/catalog_public/vehicles/?page=1&page_size=3":{"data":{"count":48322,"page":1,"pages":16108,"page_size":3,"has_next":true,"has_previous":false,"next_page":2,"previous_page":null,"results":[{"id":"d1b31a20-1e6d-44e0-ad68-cc65d618388d","listing_id":null,"listing_url":null,"source":{"id":"8dee4fa6-d856-49db-9441-db4149ab9f1e","code":"encar","name":"Encar"},"brand":{"id":"33006145-a4b8-49b4-94d8-ac20b40679f7","name":"Kia","slug":"kia"},"model":{"id":"a240a61e-d391-4f93-8bdb-e47676b64851","name":"Morning","slug":"morning","body_type":"unknown"},"trim":"Prestige","generation":"JA","display_name":"Kia Morning (2026)","year":2026,"mileage":6,"mileage_display":"6 km","engine_cc":998,"seat_count":5,"fuel_type":"gasoline","transmission":"auto","body_type":"hatchback","color":"white","drive_type":"fwd","seller_type":"private","region":"Daejeon","price":"2880000.00","price_currency":"KRW","price_usd":2000,"price_display":"₩2.9M","is_verified":false,"status":"active","is_available":true,"availability_checked_at":null,"is_undervalued":null,"valuation":{"price_status":"undervalued","is_undervalued":true,"percentile_rank":80,"estimated_price":"13565.32","estimated_price_display":"$13,600","price_low":"9563.81","price_low_display":"$9,600","price_high":"17566.84","price_high_display":"$17,600","confidence":0.7897,"comparable_count":100,"price_difference_pct":594.6858779166603,"market_delta_pct":-594.6858779166603,"cohort_std_price":"4001.52","cohort_std_price_display":"$4,000","price_position_pct":6},"is_masked":true,"block_reason":{"code":"field_hidden_on_plan","title_key":"app.block.fieldHiddenOnPlan.title","message_key":"app.block.fieldHiddenOnPlan.message","context":{"fields":["listing_url","listing_id"],"current_plan_code":"free"},"cta":{"label_key":"app.block.cta.upgrade","href":"/private/tariffs"}},"main_photo_url":"https://api.carapis.com/apix/catalog_photos/photo/21a1cbbd-1430-491f-9703-6312e45cd462.jpg","public_url":"https://my.carapis.com/catalog/d1b31a20-1e6d-44e0-ad68-cc65d618388d/","photos_count":19,"preview_photos":[{"id":"21a1cbbd-1430-491f-9703-6312e45cd462","url":"https://api.carapis.com/apix/catalog_photos/photo/21a1cbbd-1430-491f-9703-6312e45cd462.jpg","thumbnail_url":"https://api.carapis.com/apix/catalog_photos/photo/21a1cbbd-1430-491f-9703-6312e45cd462/thumb.jpg","photo_type":"exterior","is_main":true,"caption":"","position":0,"is_watermarked":true},{"id":"e299557e-37c2-41bf-b3b7-e2c8c0f6e7b8","url":"https://api.carapis.com/apix/catalog_photos/photo/e299557e-37c2-41bf-b3b7-e2c8c0f6e7b8.jpg","thumbnail_url":"https://api.carapis.com/apix/catalog_photos/photo/e299557e-37c2-41bf-b3b7-e2c8c0f6e7b8/thumb.jpg","photo_type":"exterior","is_main":false,"caption":"","position":1,"is_watermarked":true},{"id":"6101eb7e-5ecc-487f-832e-37d7c50ed0a3","url":"https://api.carapis.com/apix/catalog_photos/photo/6101eb7e-5ecc-487f-832e-37d7c50ed0a3.jpg","thumbnail_url":"https://api.carapis.com/apix/catalog_photos/photo/6101eb7e-5ecc-487f-832e-37d7c50ed0a3/thumb.jpg","photo_type":"exterior","is_main":false,"caption":"","position":2,"is_watermarked":true},{"id":"cc2deb08-3049-449d-972f-9445045681ea","url":"https://api.carapis.com/apix/catalog_photos/photo/cc2deb08-3049-449d-972f-9445045681ea.jpg","thumbnail_url":"https://api.carapis.com/apix/catalog_photos/photo/cc2deb08-3049-449d-972f-9445045681ea/thumb.jpg","photo_type":"exterior","is_main":false,"caption":"","position":3,"is_watermarked":true},{"id":"bd4c857d-0bf6-41af-92b6-02c9701440de","url":"https://api.carapis.com/apix/catalog_photos/photo/bd4c857d-0bf6-41af-92b6-02c9701440de.jpg","thumbnail_url":"https://api.carapis.com/apix/catalog_photos/photo/bd4c857d-0bf6-41af-92b6-02c9701440de/thumb.jpg","photo_type":"exterior","is_main":false,"caption":"","position":4,"is_watermarked":true}],"has_accident":false,"has_simple_repair":false,"has_recall":false,"recall_fulfilled":false,"warranty_type":"manufacturer warranty","inspection_passed":true,"owner_count":null,"is_new_vehicle":true,"features":[],"first_seen_at":"2026-05-11T13:10:36Z","last_seen_at":"2026-05-11T13:10:36Z"},{"id":"fcfaf23f-e0dd-4abc-9217-ed7521b26ffc","listing_id":null,"listing_url":null,"source":{"id":"8dee4fa6-d856-49db-9441-db4149ab9f1e","code":"encar","name":"Encar"},"brand":{"id":"441dba99-c84c-40d2-8a81-affc9480ad6d","name":"Hyundai","slug":"hyundai"},"model":{"id":"244f6362-75cf-4270-ba16-3abe025a7c93","name":"Veloster","slug":"veloster","body_type":"unknown"},"trim":"1.6 PYL DCT","generation":"","display_name":"Hyundai Veloster (2016)","year":2016,"mileage":97014,"mileage_display":"97K km","engine_cc":1591,"seat_count":4,"fuel_type":"gasoline","transmission":"auto","body_type":"crossover","color":"red","drive_type":"fwd","seller_type":"dealer","region":"Gyeonggi","price":"6900000.00","price_currency":"KRW","price_usd":4700,"price_display":"₩6.9M","is_verified":false,"status":"active","is_available":true,"availability_checked_at":null,"is_undervalued":null,"valuation":{"price_status":"undervalued","is_undervalued":true,"percentile_rank":72,"estimated_price":"6798.77","estimated_price_display":"$6,800","price_low":"3801.92","price_low_display":"$3,800","price_high":"9795.61","price_high_display":"$9,800","confidence":0.8054,"comparable_count":94,"price_difference_pct":45.322171999907724,"market_delta_pct":-45.322171999907724,"cohort_std_price":"2996.84","cohort_std_price_display":"$3,000","price_position_pct":28},"is_masked":true,"block_reason":{"code":"field_hidden_on_plan","title_key":"app.block.fieldHiddenOnPlan.title","message_key":"app.block.fieldHiddenOnPlan.message","context":{"fields":["listing_url","listing_id"],"current_plan_code":"free"},"cta":{"label_key":"app.block.cta.upgrade","href":"/private/tariffs"}},"main_photo_url":"https://api.carapis.com/apix/catalog_photos/photo/dae38d42-4a53-47ff-8317-dd247873ea9c.jpg","public_url":"https://my.carapis.com/catalog/fcfaf23f-e0dd-4abc-9217-ed7521b26ffc/","photos_count":20,"preview_photos":[{"id":"dae38d42-4a53-47ff-8317-dd247873ea9c","url":"https://api.carapis.com/apix/catalog_photos/photo/dae38d42-4a53-47ff-8317-dd247873ea9c.jpg","thumbnail_url":"https://api.carapis.com/apix/catalog_photos/photo/dae38d42-4a53-47ff-8317-dd247873ea9c/thumb.jpg","photo_type":"exterior","is_main":true,"caption":"","position":0,"is_watermarked":true},{"id":"853332a2-75ae-4a1d-9b98-13c21b54673b","url":"https://api.carapis.com/apix/catalog_photos/photo/853332a2-75ae-4a1d-9b98-13c21b54673b.jpg","thumbnail_url":"https://api.carapis.com/apix/catalog_photos/photo/853332a2-75ae-4a1d-9b98-13c21b54673b/thumb.jpg","photo_type":"exterior","is_main":false,"caption":"","position":1,"is_watermarked":true},{"id":"bcd5ca1b-631f-47d9-bded-375b5582e9e1","url":"https://api.carapis.com/apix/catalog_photos/photo/bcd5ca1b-631f-47d9-bded-375b5582e9e1.jpg","thumbnail_url":"https://api.carapis.com/apix/catalog_photos/photo/bcd5ca1b-631f-47d9-bded-375b5582e9e1/thumb.jpg","photo_type":"exterior","is_main":false,"caption":"","position":2,"is_watermarked":true},{"id":"5d449d1f-3e78-4168-b5a4-159236d19bac","url":"https://api.carapis.com/apix/catalog_photos/photo/5d449d1f-3e78-4168-b5a4-159236d19bac.jpg","thumbnail_url":"https://api.carapis.com/apix/catalog_photos/photo/5d449d1f-3e78-4168-b5a4-159236d19bac/thumb.jpg","photo_type":"exterior","is_main":false,"caption":"","position":3,"is_watermarked":true},{"id":"55ef57fe-f620-4e11-82b3-b26b583e7713","url":"https://api.carapis.com/apix/catalog_photos/photo/55ef57fe-f620-4e11-82b3-b26b583e7713.jpg","thumbnail_url":"https://api.carapis.com/apix/catalog_photos/photo/55ef57fe-f620-4e11-82b3-b26b583e7713/thumb.jpg","photo_type":"exterior","is_main":false,"caption":"","position":4,"is_watermarked":true}],"has_accident":true,"has_simple_repair":true,"has_recall":true,"recall_fulfilled":true,"warranty_type":"insurance warranty","inspection_passed":true,"owner_count":null,"is_new_vehicle":false,"features":[],"first_seen_at":"2026-05-11T12:41:59Z","last_seen_at":"2026-05-11T12:41:59Z"},{"id":"8f50cc0b-2094-40ed-ac27-586c7c7dcd38","listing_id":null,"listing_url":null,"source":{"id":"8dee4fa6-d856-49db-9441-db4149ab9f1e","code":"encar","name":"Encar"},"brand":{"id":"655f5261-f40f-4542-a252-b14fee019e59","name":"Renault Samsung","slug":"renault-samsung"},"model":{"id":"f253c94d-b55c-4f64-b9bd-6ff67557266d","name":"Sm5","slug":"sm5","body_type":"unknown"},"trim":"LE Exclusive","generation":"","display_name":"Renault Samsung Sm5 (2009)","year":2009,"mileage":109037,"mileage_display":"109K km","engine_cc":1998,"seat_count":5,"fuel_type":"gasoline","transmission":"auto","body_type":"sedan","color":"black","drive_type":"fwd","seller_type":"dealer","region":"Seoul","price":"2900000.00","price_currency":"KRW","price_usd":2000,"price_display":"₩2.9M","is_verified":true,"status":"active","is_available":true,"availability_checked_at":null,"is_undervalued":null,"valuation":{"price_status":"fair","is_undervalued":false,"percentile_rank":null,"estimated_price":null,"estimated_price_display":null,"price_low":null,"price_low_display":null,"price_high":null,"price_high_display":null,"confidence":0,"comparable_count":0,"price_difference_pct":null,"market_delta_pct":null,"cohort_std_price":null,"cohort_std_price_display":null,"price_position_pct":null},"is_masked":true,"block_reason":{"code":"field_hidden_on_plan","title_key":"app.block.fieldHiddenOnPlan.title","message_key":"app.block.fieldHiddenOnPlan.message","context":{"fields":["listing_url","listing_id"],"current_plan_code":"free"},"cta":{"label_key":"app.block.cta.upgrade","href":"/private/tariffs"}},"main_photo_url":"https://api.carapis.com/apix/catalog_photos/photo/75c2d67a-ede1-461b-b0f3-910fc93b026c.jpg","public_url":"https://my.carapis.com/catalog/8f50cc0b-2094-40ed-ac27-586c7c7dcd38/","photos_count":20,"preview_photos":[{"id":"75c2d67a-ede1-461b-b0f3-910fc93b026c","url":"https://api.carapis.com/apix/catalog_photos/photo/75c2d67a-ede1-461b-b0f3-910fc93b026c.jpg","thumbnail_url":"https://api.carapis.com/apix/catalog_photos/photo/75c2d67a-ede1-461b-b0f3-910fc93b026c/thumb.jpg","photo_type":"exterior","is_main":true,"caption":"","position":0,"is_watermarked":true},{"id":"838e7ac9-f84a-47ee-b95f-86552221eeab","url":"https://api.carapis.com/apix/catalog_photos/photo/838e7ac9-f84a-47ee-b95f-86552221eeab.jpg","thumbnail_url":"https://api.carapis.com/apix/catalog_photos/photo/838e7ac9-f84a-47ee-b95f-86552221eeab/thumb.jpg","photo_type":"exterior","is_main":false,"caption":"","position":1,"is_watermarked":true},{"id":"914af3cc-b2ac-4b15-84fa-696c2284764b","url":"https://api.carapis.com/apix/catalog_photos/photo/914af3cc-b2ac-4b15-84fa-696c2284764b.jpg","thumbnail_url":"https://api.carapis.com/apix/catalog_photos/photo/914af3cc-b2ac-4b15-84fa-696c2284764b/thumb.jpg","photo_type":"exterior","is_main":false,"caption":"","position":2,"is_watermarked":true},{"id":"78ddabf7-c33e-4074-8fe7-abd9a729436b","url":"https://api.carapis.com/apix/catalog_photos/photo/78ddabf7-c33e-4074-8fe7-abd9a729436b.jpg","thumbnail_url":"https://api.carapis.com/apix/catalog_photos/photo/78ddabf7-c33e-4074-8fe7-abd9a729436b/thumb.jpg","photo_type":"exterior","is_main":false,"caption":"","position":3,"is_watermarked":true},{"id":"165f1196-3b2d-4aa3-badc-137e8db73437","url":"https://api.carapis.com/apix/catalog_photos/photo/165f1196-3b2d-4aa3-badc-137e8db73437.jpg","thumbnail_url":"https://api.carapis.com/apix/catalog_photos/photo/165f1196-3b2d-4aa3-badc-137e8db73437/thumb.jpg","photo_type":"exterior","is_main":false,"caption":"","position":4,"is_watermarked":true}],"has_accident":false,"has_simple_repair":false,"has_recall":false,"recall_fulfilled":false,"warranty_type":"insurance warranty","inspection_passed":true,"owner_count":1,"is_new_vehicle":false,"features":[],"first_seen_at":"2026-05-11T12:41:56Z","last_seen_at":"2026-05-11T12:41:56Z"}]},"time":1778506182631},"https://api.carapis.com/apix/catalog_public/vehicles/?page=1&page_size=1":{"data":{"count":48322,"page":1,"pages":48322,"page_size":1,"has_next":true,"has_previous":false,"next_page":2,"previous_page":null,"results":[{"id":"d1b31a20-1e6d-44e0-ad68-cc65d618388d","listing_id":null,"listing_url":null,"source":{"id":"8dee4fa6-d856-49db-9441-db4149ab9f1e","code":"encar","name":"Encar"},"brand":{"id":"33006145-a4b8-49b4-94d8-ac20b40679f7","name":"Kia","slug":"kia"},"model":{"id":"a240a61e-d391-4f93-8bdb-e47676b64851","name":"Morning","slug":"morning","body_type":"unknown"},"trim":"Prestige","generation":"JA","display_name":"Kia Morning (2026)","year":2026,"mileage":6,"mileage_display":"6 km","engine_cc":998,"seat_count":5,"fuel_type":"gasoline","transmission":"auto","body_type":"hatchback","color":"white","drive_type":"fwd","seller_type":"private","region":"Daejeon","price":"2880000.00","price_currency":"KRW","price_usd":2000,"price_display":"₩2.9M","is_verified":false,"status":"active","is_available":true,"availability_checked_at":null,"is_undervalued":null,"valuation":{"price_status":"undervalued","is_undervalued":true,"percentile_rank":80,"estimated_price":"13565.32","estimated_price_display":"$13,600","price_low":"9563.81","price_low_display":"$9,600","price_high":"17566.84","price_high_display":"$17,600","confidence":0.7897,"comparable_count":100,"price_difference_pct":594.6858779166603,"market_delta_pct":-594.6858779166603,"cohort_std_price":"4001.52","cohort_std_price_display":"$4,000","price_position_pct":6},"is_masked":true,"block_reason":{"code":"field_hidden_on_plan","title_key":"app.block.fieldHiddenOnPlan.title","message_key":"app.block.fieldHiddenOnPlan.message","context":{"fields":["listing_url","listing_id"],"current_plan_code":"free"},"cta":{"label_key":"app.block.cta.upgrade","href":"/private/tariffs"}},"main_photo_url":"https://api.carapis.com/apix/catalog_photos/photo/21a1cbbd-1430-491f-9703-6312e45cd462.jpg","public_url":"https://my.carapis.com/catalog/d1b31a20-1e6d-44e0-ad68-cc65d618388d/","photos_count":19,"preview_photos":[{"id":"21a1cbbd-1430-491f-9703-6312e45cd462","url":"https://api.carapis.com/apix/catalog_photos/photo/21a1cbbd-1430-491f-9703-6312e45cd462.jpg","thumbnail_url":"https://api.carapis.com/apix/catalog_photos/photo/21a1cbbd-1430-491f-9703-6312e45cd462/thumb.jpg","photo_type":"exterior","is_main":true,"caption":"","position":0,"is_watermarked":true},{"id":"e299557e-37c2-41bf-b3b7-e2c8c0f6e7b8","url":"https://api.carapis.com/apix/catalog_photos/photo/e299557e-37c2-41bf-b3b7-e2c8c0f6e7b8.jpg","thumbnail_url":"https://api.carapis.com/apix/catalog_photos/photo/e299557e-37c2-41bf-b3b7-e2c8c0f6e7b8/thumb.jpg","photo_type":"exterior","is_main":false,"caption":"","position":1,"is_watermarked":true},{"id":"6101eb7e-5ecc-487f-832e-37d7c50ed0a3","url":"https://api.carapis.com/apix/catalog_photos/photo/6101eb7e-5ecc-487f-832e-37d7c50ed0a3.jpg","thumbnail_url":"https://api.carapis.com/apix/catalog_photos/photo/6101eb7e-5ecc-487f-832e-37d7c50ed0a3/thumb.jpg","photo_type":"exterior","is_main":false,"caption":"","position":2,"is_watermarked":true},{"id":"cc2deb08-3049-449d-972f-9445045681ea","url":"https://api.carapis.com/apix/catalog_photos/photo/cc2deb08-3049-449d-972f-9445045681ea.jpg","thumbnail_url":"https://api.carapis.com/apix/catalog_photos/photo/cc2deb08-3049-449d-972f-9445045681ea/thumb.jpg","photo_type":"exterior","is_main":false,"caption":"","position":3,"is_watermarked":true},{"id":"bd4c857d-0bf6-41af-92b6-02c9701440de","url":"https://api.carapis.com/apix/catalog_photos/photo/bd4c857d-0bf6-41af-92b6-02c9701440de.jpg","thumbnail_url":"https://api.carapis.com/apix/catalog_photos/photo/bd4c857d-0bf6-41af-92b6-02c9701440de/thumb.jpg","photo_type":"exterior","is_main":false,"caption":"","position":4,"is_watermarked":true}],"has_accident":false,"has_simple_repair":false,"has_recall":false,"recall_fulfilled":false,"warranty_type":"manufacturer warranty","inspection_passed":true,"owner_count":null,"is_new_vehicle":true,"features":[],"first_seen_at":"2026-05-11T13:10:36Z","last_seen_at":"2026-05-11T13:10:36Z"}]},"time":1778506182993},"https://api.carapis.com/apix/catalog_public/vehicles/detail/d1b31a20-1e6d-44e0-ad68-cc65d618388d/":{"data":{"id":"d1b31a20-1e6d-44e0-ad68-cc65d618388d","listing_id":null,"listing_url":null,"public_url":"https://my.carapis.com/catalog/d1b31a20-1e6d-44e0-ad68-cc65d618388d/","source":{"id":"8dee4fa6-d856-49db-9441-db4149ab9f1e","code":"encar","name":"Encar","country":"Korea","currency":"KRW","website_url":"https://www.encar.com"},"brand":{"id":"33006145-a4b8-49b4-94d8-ac20b40679f7","name":"Kia","slug":"kia","country_of_origin":"","logo_url":""},"model":{"id":"a240a61e-d391-4f93-8bdb-e47676b64851","name":"Morning","slug":"morning","generation":"","body_type":"unknown"},"trim":"Prestige","generation":"JA","vin":null,"vehicle_no":null,"display_name":"Kia Morning (2026)","year":2026,"mileage":6,"mileage_display":"6 km","engine_cc":998,"seat_count":5,"fuel_type":"gasoline","transmission":"auto","body_type":"hatchback","color":"white","drive_type":"fwd","seller_type":"private","region":"Daejeon","price":"2880000.00","price_currency":"KRW","price_usd":2000,"price_display":"₩2.9M","original_msrp":"16450000.00","description":"## Kia Morning 2026 - Quick Delivery Available!\n\n### Highlights\n- Fuel-efficient hatchback compact car.\n- Low mileage with original packaging intact.\n- Equipped with an 8-inch navigation system and va…","is_verified":false,"status":"active","is_available":true,"availability_checked_at":null,"is_normalized":true,"normalization_confidence":0.913,"is_undervalued":null,"valuation_score":null,"is_masked":true,"block_reason":{"code":"field_hidden_on_plan","title_key":"app.block.fieldHiddenOnPlan.title","message_key":"app.block.fieldHiddenOnPlan.message","context":{"fields":["vin","vehicle_no","is_undervalued","valuation_score","description","listing_url","listing_id"],"current_plan_code":"free"},"cta":{"label_key":"app.block.cta.upgrade","href":"/private/tariffs"}},"has_accident":false,"has_simple_repair":false,"has_recall":false,"recall_fulfilled":false,"warranty_type":"manufacturer warranty","inspection_passed":true,"owner_count":null,"is_new_vehicle":true,"features":[],"photos":[{"id":"21a1cbbd-1430-491f-9703-6312e45cd462","url":"https://api.carapis.com/apix/catalog_photos/photo/21a1cbbd-1430-491f-9703-6312e45cd462.jpg","thumbnail_url":"https://api.carapis.com/apix/catalog_photos/photo/21a1cbbd-1430-491f-9703-6312e45cd462/thumb.jpg","photo_type":"exterior","is_main":true,"caption":"","position":0,"is_watermarked":true},{"id":"e299557e-37c2-41bf-b3b7-e2c8c0f6e7b8","url":"https://api.carapis.com/apix/catalog_photos/photo/e299557e-37c2-41bf-b3b7-e2c8c0f6e7b8.jpg","thumbnail_url":"https://api.carapis.com/apix/catalog_photos/photo/e299557e-37c2-41bf-b3b7-e2c8c0f6e7b8/thumb.jpg","photo_type":"exterior","is_main":false,"caption":"","position":1,"is_watermarked":true},{"id":"6101eb7e-5ecc-487f-832e-37d7c50ed0a3","url":"https://api.carapis.com/apix/catalog_photos/photo/6101eb7e-5ecc-487f-832e-37d7c50ed0a3.jpg","thumbnail_url":"https://api.carapis.com/apix/catalog_photos/photo/6101eb7e-5ecc-487f-832e-37d7c50ed0a3/thumb.jpg","photo_type":"exterior","is_main":false,"caption":"","position":2,"is_watermarked":true},{"id":"cc2deb08-3049-449d-972f-9445045681ea","url":"https://api.carapis.com/apix/catalog_photos/photo/cc2deb08-3049-449d-972f-9445045681ea.jpg","thumbnail_url":"https://api.carapis.com/apix/catalog_photos/photo/cc2deb08-3049-449d-972f-9445045681ea/thumb.jpg","photo_type":"exterior","is_main":false,"caption":"","position":3,"is_watermarked":true},{"id":"bd4c857d-0bf6-41af-92b6-02c9701440de","url":"https://api.carapis.com/apix/catalog_photos/photo/bd4c857d-0bf6-41af-92b6-02c9701440de.jpg","thumbnail_url":"https://api.carapis.com/apix/catalog_photos/photo/bd4c857d-0bf6-41af-92b6-02c9701440de/thumb.jpg","photo_type":"exterior","is_main":false,"caption":"","position":4,"is_watermarked":true},{"id":"9dbdee9a-6740-432f-96f2-c9b18ab62774","url":"https://api.carapis.com/apix/catalog_photos/photo/9dbdee9a-6740-432f-96f2-c9b18ab62774.jpg","thumbnail_url":"https://api.carapis.com/apix/catalog_photos/photo/9dbdee9a-6740-432f-96f2-c9b18ab62774/thumb.jpg","photo_type":"exterior","is_main":false,"caption":"","position":5,"is_watermarked":true},{"id":"c34a7c11-33ce-436e-974e-05032e61d2ed","url":"https://api.carapis.com/apix/catalog_photos/photo/c34a7c11-33ce-436e-974e-05032e61d2ed.jpg","thumbnail_url":"https://api.carapis.com/apix/catalog_photos/photo/c34a7c11-33ce-436e-974e-05032e61d2ed/thumb.jpg","photo_type":"exterior","is_main":false,"caption":"","position":6,"is_watermarked":true},{"id":"65941d63-9b26-4ea3-b38e-2ef4de722607","url":"https://api.carapis.com/apix/catalog_photos/photo/65941d63-9b26-4ea3-b38e-2ef4de722607.jpg","thumbnail_url":"https://api.carapis.com/apix/catalog_photos/photo/65941d63-9b26-4ea3-b38e-2ef4de722607/thumb.jpg","photo_type":"exterior","is_main":false,"caption":"","position":7,"is_watermarked":true},{"id":"3fedbf09-cee8-4a08-8922-66618a66d61f","url":"https://api.carapis.com/apix/catalog_photos/photo/3fedbf09-cee8-4a08-8922-66618a66d61f.jpg","thumbnail_url":"https://api.carapis.com/apix/catalog_photos/photo/3fedbf09-cee8-4a08-8922-66618a66d61f/thumb.jpg","photo_type":"exterior","is_main":false,"caption":"","position":8,"is_watermarked":true},{"id":"81fee345-0534-493f-b17a-3ed91aff5db2","url":"https://api.carapis.com/apix/catalog_photos/photo/81fee345-0534-493f-b17a-3ed91aff5db2.jpg","thumbnail_url":"https://api.carapis.com/apix/catalog_photos/photo/81fee345-0534-493f-b17a-3ed91aff5db2/thumb.jpg","photo_type":"exterior","is_main":false,"caption":"","position":9,"is_watermarked":true},{"id":"2fbcb985-272e-46a9-9117-135513e7a81a","url":"https://api.carapis.com/apix/catalog_photos/photo/2fbcb985-272e-46a9-9117-135513e7a81a.jpg","thumbnail_url":"https://api.carapis.com/apix/catalog_photos/photo/2fbcb985-272e-46a9-9117-135513e7a81a/thumb.jpg","photo_type":"exterior","is_main":false,"caption":"","position":10,"is_watermarked":true},{"id":"a450021b-f55e-4d61-916a-e22fc059351d","url":"https://api.carapis.com/apix/catalog_photos/photo/a450021b-f55e-4d61-916a-e22fc059351d.jpg","thumbnail_url":"https://api.carapis.com/apix/catalog_photos/photo/a450021b-f55e-4d61-916a-e22fc059351d/thumb.jpg","photo_type":"exterior","is_main":false,"caption":"","position":11,"is_watermarked":true},{"id":"d0d4cca9-f6db-4307-9ca9-498016a55a4f","url":"https://api.carapis.com/apix/catalog_photos/photo/d0d4cca9-f6db-4307-9ca9-498016a55a4f.jpg","thumbnail_url":"https://api.carapis.com/apix/catalog_photos/photo/d0d4cca9-f6db-4307-9ca9-498016a55a4f/thumb.jpg","photo_type":"exterior","is_main":false,"caption":"","position":12,"is_watermarked":true},{"id":"a950fab2-aabe-4e10-952f-2e03510c3787","url":"https://api.carapis.com/apix/catalog_photos/photo/a950fab2-aabe-4e10-952f-2e03510c3787.jpg","thumbnail_url":"https://api.carapis.com/apix/catalog_photos/photo/a950fab2-aabe-4e10-952f-2e03510c3787/thumb.jpg","photo_type":"exterior","is_main":false,"caption":"","position":13,"is_watermarked":true},{"id":"0d100758-a46a-4775-a3cd-8100a9d5f96b","url":"https://api.carapis.com/apix/catalog_photos/photo/0d100758-a46a-4775-a3cd-8100a9d5f96b.jpg","thumbnail_url":"https://api.carapis.com/apix/catalog_photos/photo/0d100758-a46a-4775-a3cd-8100a9d5f96b/thumb.jpg","photo_type":"exterior","is_main":false,"caption":"","position":14,"is_watermarked":true},{"id":"ed36a0f1-d09d-4781-ae86-3c8b30746d8f","url":"https://api.carapis.com/apix/catalog_photos/photo/ed36a0f1-d09d-4781-ae86-3c8b30746d8f.jpg","thumbnail_url":"https://api.carapis.com/apix/catalog_photos/photo/ed36a0f1-d09d-4781-ae86-3c8b30746d8f/thumb.jpg","photo_type":"exterior","is_main":false,"caption":"","position":15,"is_watermarked":true},{"id":"e17e1523-d493-468a-98ef-c49eca6e0f30","url":"https://api.carapis.com/apix/catalog_photos/photo/e17e1523-d493-468a-98ef-c49eca6e0f30.jpg","thumbnail_url":"https://api.carapis.com/apix/catalog_photos/photo/e17e1523-d493-468a-98ef-c49eca6e0f30/thumb.jpg","photo_type":"exterior","is_main":false,"caption":"","position":16,"is_watermarked":true},{"id":"264a7729-7735-4b6e-9cc4-8c2f89d7ea89","url":"https://api.carapis.com/apix/catalog_photos/photo/264a7729-7735-4b6e-9cc4-8c2f89d7ea89.jpg","thumbnail_url":"https://api.carapis.com/apix/catalog_photos/photo/264a7729-7735-4b6e-9cc4-8c2f89d7ea89/thumb.jpg","photo_type":"exterior","is_main":false,"caption":"","position":17,"is_watermarked":true},{"id":"5602e68e-0f81-41b2-9ff6-b589424aba4f","url":"https://api.carapis.com/apix/catalog_photos/photo/5602e68e-0f81-41b2-9ff6-b589424aba4f.jpg","thumbnail_url":"https://api.carapis.com/apix/catalog_photos/photo/5602e68e-0f81-41b2-9ff6-b589424aba4f/thumb.jpg","photo_type":"exterior","is_main":false,"caption":"","position":18,"is_watermarked":true}],"first_seen_at":"2026-05-11T13:10:36Z","last_seen_at":"2026-05-11T13:10:36Z","status_changed_at":null},"time":1778506183267}}